Data_Wrangling_2.utf8
…
This is not a terribly interesting dataset until we start to evaluate some of the differences. It’s also setup in a way to let us easily group by different variables. We could ask a simple question: how does highway mileage differ by manufacturer?

First we can use group_by. Notice the new information at the top of the output.

by_make <- group_by(mpg, manufacturer)
by_make

## # A tibble: 234 x 12
## # Groups:   manufacturer [15]
##    manufacturer model    displ  year   cyl trans   drv     cty   hwy fl   
##    <chr>        <chr>    <dbl> <int> <int> <chr>   <chr> <int> <int> <chr>
##  1 audi         a4        1.80  1999     4 auto(l~ f        18    29 p    
##  2 audi         a4        1.80  1999     4 manual~ f        21    29 p    
##  3 audi         a4        2.00  2008     4 manual~ f        20    31 p    
##  4 audi         a4        2.00  2008     4 auto(a~ f        21    30 p    
##  5 audi         a4        2.80  1999     6 auto(l~ f        16    26 p    
##  6 audi         a4        2.80  1999     6 manual~ f        18    26 p    
##  7 audi         a4        3.10  2008     6 auto(a~ f        18    27 p    
##  8 audi         a4 quat~  1.80  1999     4 manual~ 4        18    26 p    
##  9 audi         a4 quat~  1.80  1999     4 auto(l~ 4        16    25 p    
## 10 audi         a4 quat~  2.00  2008     4 manual~ 4        20    28 p    
## # ... with 224 more rows, and 2 more variables: class <chr>, origin <chr>
…
