…
st_crs(polys) == st_crs(stations)

## [1] TRUE

The next step is to join the sediment chemistry data with the station data. We’ll have to wrangle the chemistry data first to remove some extra columns and filter by a parameter of interest.

sedchem

## # A tibble: 9,089 x 16
##     Year Source StationID Replicate Field5 Field6 SampleDate         
##    <dbl> <chr>  <chr>         <dbl> <lgl>  <lgl>  <dttm>             
##  1  2013 Bight  B13-8002          1 NA     NA     2013-08-05 00:00:00
##  2  2013 Bight  B13-8002          1 NA     NA     2013-08-05 00:00:00
##  3  2013 Bight  B13-8002          1 NA     NA     2013-08-05 00:00:00
##  4  2013 Bight  B13-8002          1 NA     NA     2013-08-05 00:00:00
##  5  2013 Bight  B13-8002          1 NA     NA     2013-08-05 00:00:00
##  6  2013 Bight  B13-8002          1 NA     NA     2013-08-05 00:00:00
##  7  2013 Bight  B13-8002          1 NA     NA     2013-08-05 00:00:00
##  8  2013 Bight  B13-8002          1 NA     NA     2013-08-05 00:00:00
##  9  2013 Bight  B13-8002          1 NA     NA     2013-08-05 00:00:00
## 10  2013 Bight  B13-8002          1 NA     NA     2013-08-05 00:00:00
## # ... with 9,079 more rows, and 9 more variables: Matrix <chr>,
## #   Field9 <lgl>, Parameter <chr>, Qualifier <lgl>, Result_Units <chr>,
## #   Result <dbl>, MDL <dbl>, RL <dbl>, Class <chr>

sedchem <- sedchem %>% 
  select(Year, StationID, Parameter, Result_Units, Result) %>% 
  filter(Parameter %in% 'Arsenic')
sedchem

## # A tibble: 346 x 5
##     Year StationID Parameter Result_Units Result
##    <dbl> <chr>     <chr>     <chr>         <dbl>
##  1  2013 B13-8002  Arsenic   ug/g dw        1.23
##  2  2013 B13-8008  Arsenic   ug/g dw        2.67
##  3  2013 B13-8013  Arsenic   ug/g dw        6.96
##  4  2013 B13-8014  Arsenic   ug/g dw        2.89
##  5  2013 B13-8017  Arsenic   ug/g dw        7.08
##  6  2013 B13-8018  Arsenic   ug/g dw        1.92
##  7  2013 B13-8020  Arsenic   ug/g dw       14.7 
##  8  2013 B13-8029  Arsenic   ug/g dw        4.95
##  9  2013 B13-8043  Arsenic   ug/g dw        5.26
## 10  2013 B13-8045  Arsenic   ug/g dw        9.03
## # ... with 336 more rows
…
